{
    "address": "民權東西1號",
    "city_id": 1,
    "cityarea_id": 1,
    "custom_url": [
        {
            "name": "自定義一",
            "url": "https://abc.com.tw"
        },
        {
            "name": "自定義二",
            "url": "https://abc.com.tw"
        }
    ],
    "email": "um@omos.tw",
    "facebook": "https://www.facebook.com",
    "instagram": "https://www.instagram.com",
    "phone": "(02)2222-5252",
    "tax_id": "12345678",
    "tax_name": "OMOS",
    "website": "https://www.omos.tw",
    "youtube": "https://www.youtube.com"
}