{
    "data": [
        {
            "id": 1,
            "image_url": "https://dev-image.okpos.tw/1/01b89cc44b6f11ecaebe1ab8ee59a2c8.jpeg",
            "is_online": 1,
            "kind": 1,
            "last_count": 1,
            "last_use_date": "2021-12-16T13:00:05",
            "promotion_type": 0,
            "quantity_limit": 0,
            "status": 1,
            "title": "門市打折",
            "usage_period": 5
        },
        {
            "id": 2,
            "image_url": null,
            "is_online": 1,
            "kind": 1,
            "last_count": null,
            "last_use_date": null,
            "promotion_type": 0,
            "quantity_limit": 100,
            "status": 1,
            "title": "線上打折",
            "usage_period": 2
        },
        {
            "id": 3,
            "image_url": null,
            "is_online": 1,
            "kind": 1,
            "last_count": null,
            "last_use_date": null,
            "promotion_type": 1,
            "quantity_limit": 0,
            "status": 1,
            "title": "線上折扣 100 元",
            "usage_period": 10
        },
        {
            "id": 4,
            "image_url": null,
            "is_online": 1,
            "kind": 1,
            "last_count": null,
            "last_use_date": null,
            "promotion_type": 2,
            "quantity_limit": 10,
            "status": 1,
            "title": "贈品 多 0 元",
            "usage_period": 1
        },
        {
            "id": 5,
            "image_url": null,
            "is_online": 1,
            "kind": 1,
            "last_count": null,
            "last_use_date": "2021-11-17T07:59:59",
            "promotion_type": 3,
            "quantity_limit": 0,
            "status": 1,
            "title": "升級卷 多 50 元",
            "usage_period": null
        },
        {
            "id": 14,
            "image_url": null,
            "is_online": 1,
            "kind": 1,
            "last_count": null,
            "last_use_date": "2021-11-02T16:06:22",
            "promotion_type": 0,
            "quantity_limit": 0,
            "status": 1,
            "title": "2",
            "usage_period": null
        },
        {
            "id": 15,
            "image_url": "https://dev-image.okpos.tw/1/efecf6364b7111ecaebe1ab8ee59a2c8.jpeg",
            "is_online": 0,
            "kind": 1,
            "last_count": null,
            "last_use_date": "2021-11-23T10:05:10",
            "promotion_type": 0,
            "quantity_limit": 0,
            "status": 1,
            "title": "22222",
            "usage_period": 2222
        },
        {
            "id": 16,
            "image_url": "https://dev-image.okpos.tw/1/efecf6364b7111ecaebe1ab8ee59a2c8.jpeg",
            "is_online": 0,
            "kind": 1,
            "last_count": null,
            "last_use_date": "2021-11-29T16:55:18",
            "promotion_type": 0,
            "quantity_limit": 0,
            "status": 1,
            "title": "22222",
            "usage_period": null
        },
        {
            "id": 17,
            "image_url": "https://dev-image.okpos.tw/1/fb4a41e84b7411ecba2c06c73ec1ff21.jpeg",
            "is_online": 0,
            "kind": 1,
            "last_count": null,
            "last_use_date": "2021-11-29T17:01:55",
            "promotion_type": 0,
            "quantity_limit": 0,
            "status": 1,
            "title": "12222",
            "usage_period": null
        },
        {
            "id": 18,
            "image_url": null,
            "is_online": 0,
            "kind": 1,
            "last_count": null,
            "last_use_date": "2021-11-29T17:21:18",
            "promotion_type": 0,
            "quantity_limit": 0,
            "status": 1,
            "title": "2121222",
            "usage_period": null
        },
        {
            "id": 19,
            "image_url": null,
            "is_online": 0,
            "kind": 1,
            "last_count": null,
            "last_use_date": "2021-11-29T17:21:18",
            "promotion_type": 0,
            "quantity_limit": 0,
            "status": 0,
            "title": "2121222",
            "usage_period": null
        },
        {
            "id": 20,
            "image_url": null,
            "is_online": 0,
            "kind": 1,
            "last_count": null,
            "last_use_date": "2021-11-29T17:21:18",
            "promotion_type": 0,
            "quantity_limit": 0,
            "status": 0,
            "title": "2121222",
            "usage_period": null
        },
        {
            "id": 21,
            "image_url": null,
            "is_online": 0,
            "kind": 1,
            "last_count": null,
            "last_use_date": "2021-11-29T17:21:18",
            "promotion_type": 0,
            "quantity_limit": 0,
            "status": 1,
            "title": "2121222",
            "usage_period": null
        },
        {
            "id": 22,
            "image_url": null,
            "is_online": 0,
            "kind": 1,
            "last_count": null,
            "last_use_date": "2021-11-29T17:21:18",
            "promotion_type": 0,
            "quantity_limit": 0,
            "status": 0,
            "title": "2121222",
            "usage_period": null
        },
        {
            "id": 23,
            "image_url": null,
            "is_online": 0,
            "kind": 1,
            "last_count": null,
            "last_use_date": "2021-11-29T17:21:18",
            "promotion_type": 0,
            "quantity_limit": 0,
            "status": 1,
            "title": "2121222",
            "usage_period": null
        },
        {
            "id": 24,
            "image_url": null,
            "is_online": 0,
            "kind": 1,
            "last_count": null,
            "last_use_date": "2021-11-29T17:21:18",
            "promotion_type": 0,
            "quantity_limit": 0,
            "status": 1,
            "title": "2121222",
            "usage_period": null
        },
        {
            "id": 25,
            "image_url": null,
            "is_online": 0,
            "kind": 1,
            "last_count": null,
            "last_use_date": "2021-11-29T17:21:18",
            "promotion_type": 0,
            "quantity_limit": 0,
            "status": 1,
            "title": "2121222",
            "usage_period": null
        },
        {
            "id": 26,
            "image_url": null,
            "is_online": 0,
            "kind": 1,
            "last_count": null,
            "last_use_date": "2021-11-29T17:21:18",
            "promotion_type": 0,
            "quantity_limit": 0,
            "status": 0,
            "title": "2121222",
            "usage_period": null
        },
        {
            "id": 28,
            "image_url": "https://dev-image.okpos.tw/1/67b1708a4e9111ec99342e6bb313b846.jpeg",
            "is_online": 0,
            "kind": 2,
            "last_count": null,
            "last_use_date": "2022-08-23T17:56:48",
            "promotion_type": 0,
            "quantity_limit": 100,
            "status": 1,
            "title": "21222",
            "usage_period": null
        },
        {
            "id": 29,
            "image_url": null,
            "is_online": 1,
            "kind": 2,
            "last_count": null,
            "last_use_date": "2021-11-30T09:08:02",
            "promotion_type": 0,
            "quantity_limit": 0,
            "status": 1,
            "title": "mklji",
            "usage_period": null
        },
        {
            "id": 32,
            "image_url": null,
            "is_online": 0,
            "kind": 1,
            "last_count": null,
            "last_use_date": null,
            "promotion_type": 0,
            "quantity_limit": 0,
            "status": 0,
            "title": "dsdds212",
            "usage_period": 102
        },
        {
            "id": 45,
            "image_url": null,
            "is_online": 0,
            "kind": 2,
            "last_count": null,
            "last_use_date": "2021-12-02T07:09:38",
            "promotion_type": 0,
            "quantity_limit": 0,
            "status": 0,
            "title": "aaa",
            "usage_period": null
        },
        {
            "id": 46,
            "image_url": "https://dev-image.okpos.tw/1/b0c44f6c4e8d11ec963642dd2121d90b.jpeg",
            "is_online": 1,
            "kind": 2,
            "last_count": 9998,
            "last_use_date": "2021-12-15T04:21:32",
            "promotion_type": 0,
            "quantity_limit": 9999,
            "status": 1,
            "title": "212222",
            "usage_period": null
        },
        {
            "id": 47,
            "image_url": null,
            "is_online": 1,
            "kind": 2,
            "last_count": null,
            "last_use_date": "2021-12-03T04:30:37",
            "promotion_type": 0,
            "quantity_limit": 0,
            "status": 1,
            "title": "jijijjjjj",
            "usage_period": null
        }
    ],
    "pagination": {
        "current_page": 1,
        "from": null,
        "last_page": 1,
        "pre_page": 50,
        "to": null,
        "total": 24
    }
}