{
    "data": [
        {
            "comment": "訂單編號 dL20211112000016",
            "created_at": "2021-11-12T08:46:47",
            "expiry_date": "",
            "id": 17,
            "member_id": 63,
            "order_id": 4362,
            "points": -50,
            "store_account": "",
            "type": 1,
            "updated_at": "2021-11-12T08:46:47"
        },
        {
            "comment": "訂單編號 dL20211112000012",
            "created_at": "2021-11-12T07:30:09",
            "expiry_date": null,
            "id": 16,
            "member_id": 63,
            "order_id": 4358,
            "points": -1,
            "type": 1,
            "updated_at": "2021-11-12T07:30:09"
        },
        {
            "comment": "訂單編號 dL20211112000011",
            "created_at": "2021-11-12T07:29:41",
            "expiry_date": null,
            "id": 15,
            "member_id": 63,
            "order_id": 4357,
            "points": -1,
            "type": 1,
            "updated_at": "2021-11-12T07:29:41"
        },
        {
            "comment": "訂單編號 dL20211112000010",
            "created_at": "2021-11-12T07:28:55",
            "expiry_date": null,
            "id": 14,
            "member_id": 63,
            "order_id": 4356,
            "points": -1,
            "type": 1,
            "updated_at": "2021-11-12T07:28:55"
        },
        {
            "comment": "訂單編號 dL20211110000012",
            "created_at": "2021-11-10T06:30:57",
            "expiry_date": null,
            "id": 8,
            "member_id": 63,
            "order_id": 4318,
            "points": -1,
            "type": 1,
            "updated_at": "2021-11-10T06:30:57"
        },
        {
            "comment": "訂單編號 dL20211110000011",
            "created_at": "2021-11-10T06:25:09",
            "expiry_date": null,
            "id": 7,
            "member_id": 63,
            "order_id": 4317,
            "points": -1,
            "type": 1,
            "updated_at": "2021-11-10T06:25:09"
        },
        {
            "comment": "訂單編號 dL20211110000010",
            "created_at": "2021-11-10T06:18:57",
            "expiry_date": null,
            "id": 6,
            "member_id": 63,
            "order_id": 4316,
            "points": -1,
            "type": 1,
            "updated_at": "2021-11-10T06:18:57"
        },
        {
            "comment": "訂單編號 dL20211110000006",
            "created_at": "2021-11-10T06:03:00",
            "expiry_date": null,
            "id": 5,
            "member_id": 63,
            "order_id": 4312,
            "points": -1,
            "type": 1,
            "updated_at": "2021-11-10T06:03:00"
        },
        {
            "comment": "訂單編號 dL20211110000005",
            "created_at": "2021-11-10T05:51:19",
            "expiry_date": null,
            "id": 4,
            "member_id": 63,
            "order_id": 4311,
            "points": -999,
            "type": 1,
            "updated_at": "2021-11-10T05:51:19"
        },
        {
            "comment": "訂單編號 dL20211110000003",
            "created_at": "2021-11-10T03:59:08",
            "expiry_date": null,
            "id": 3,
            "member_id": 63,
            "order_id": 4307,
            "points": -1099,
            "type": 1,
            "updated_at": "2021-11-10T03:59:08"
        },
        {
            "comment": "訂單編號 dL20211110000002",
            "created_at": "2021-11-10T02:28:39",
            "expiry_date": null,
            "id": 2,
            "member_id": 63,
            "order_id": 4306,
            "points": -3,
            "type": 1,
            "updated_at": "2021-11-10T02:28:39"
        },
        {
            "comment": "人工給",
            "created_at": "2021-11-10T02:17:29",
            "expiry_date": null,
            "id": 1,
            "member_id": 63,
            "order_id": null,
            "points": 10000,
            "type": 0,
            "updated_at": "2021-11-10T02:17:29"
        }
    ],
    "pagination": {
        "current_page": 1,
        "from": null,
        "last_page": 1,
        "pre_page": 20,
        "to": null,
        "total": 12
    },
    "total": 36
}